{
  "images" : [
    {
      "idiom" : "universal",
      "filename" : "80388903_594704381278328_4886898443194204160_n.png",
      "scale" : "1x"
    },
    {
      "idiom" : "universal",
      "filename" : "80388903_594704381278328_4886898443194204160_n-1.png",
      "scale" : "2x"
    },
    {
      "idiom" : "universal",
      "filename" : "80388903_594704381278328_4886898443194204160_n-2.png",
      "scale" : "3x"
    }
  ],
  "info" : {
    "version" : 1,
    "author" : "xcode"
  }
}