{
  "images" : [
    {
      "idiom" : "universal",
      "filename" : "ic_mini_truck_m_gas.png",
      "scale" : "1x"
    },
    {
      "idiom" : "universal",
      "filename" : "ic_mini_truck_m_gas@2x.png",
      "scale" : "2x"
    },
    {
      "idiom" : "universal",
      "filename" : "ic_mini_truck_m_gas@3x.png",
      "scale" : "3x"
    }
  ],
  "info" : {
    "version" : 1,
    "author" : "xcode"
  }
}